Risc_V_Proccessor/dump.vcd
$date
	Fri Jul 03 00:35:09 2026
$end
$version
	Icarus Verilog
$end
$timescale
	1ps
$end
$scope module top_module_tb $end
$scope module uup $end
$var wire 1 ! clk $end
$var wire 32 " imm_shift [31:0] $end
$var wire 1 # pc_and_mux $end
$var wire 1 $ reset $end
$var wire 1 % zero $end
$var wire 32 & write_data [31:0] $end
$var wire 3 ' sel [2:0] $end
$var wire 5 ( rs2 [4:0] $end
$var wire 5 ) rs1 [4:0] $end
$var wire 32 * result [31:0] $end
$var wire 1 + reg_write $end
$var wire 32 , read_data2 [31:0] $end
$var wire 32 - read_data1 [31:0] $end
$var wire 32 . read_data [31:0] $end
$var wire 5 / rd [4:0] $end
$var wire 32 0 pc_next [31:0] $end
$var wire 32 1 pc_4 [31:0] $end
$var wire 32 2 pc [31:0] $end
$var wire 1 3 overflow $end
$var wire 7 4 opcode [6:0] $end
$var wire 1 5 negative $end
$var wire 1 6 mem_write $end
$var wire 1 7 mem_read $end
$var wire 1 8 jal $end
$var wire 32 9 instruction [31:0] $end
$var wire 32 : immediate [31:0] $end
$var wire 7 ; funct7 [6:0] $end
$var wire 3 < funct3 [2:0] $end
$var wire 1 = carry $end
$var wire 32 > branch_jump [31:0] $end
$var wire 1 ? branch $end
$var wire 32 @ b [31:0] $end
$var wire 1 A alu_immediate $end
$scope module alu $end
$var wire 32 B b [31:0] $end
$var wire 1 % zero $end
$var wire 3 C select [2:0] $end
$var wire 32 D a [31:0] $end
$var reg 1 = carry $end
$var reg 1 5 negative $end
$var reg 1 3 overflow $end
$var reg 32 E result [31:0] $end
$var reg 33 F temporary [32:0] $end
$upscope $end
$scope module control_unit $end
$var wire 3 G funct3 [2:0] $end
$var wire 7 H funct7 [6:0] $end
$var wire 7 I opcode [6:0] $end
$var reg 1 A alu_immediate $end
$var reg 1 ? branch $end
$var reg 1 8 jal $end
$var reg 1 7 mem_read $end
$var reg 1 6 mem_write $end
$var reg 1 + reg_write $end
$var reg 3 J sel [2:0] $end
$upscope $end
$scope module data_mem $end
$var wire 32 K address [31:0] $end
$var wire 1 ! clk $end
$var wire 1 7 mem_read $end
$var wire 1 6 mem_write $end
$var wire 32 L write_data [31:0] $end
$var reg 32 M read_data [31:0] $end
$var integer 32 N i [31:0] $end
$upscope $end
$scope module immediate_gen $end
$var wire 7 O opcode [6:0] $end
$var wire 32 P instruction [31:0] $end
$var parameter 7 Q ADDI_OP $end
$var parameter 7 R BEQ_OP $end
$var parameter 7 S JAL_OP $end
$var parameter 7 T LW_OP $end
$var parameter 7 U SW_OP $end
$var reg 32 V immediate [31:0] $end
$upscope $end
$scope module instruction_mem $end
$var wire 32 W instruction [31:0] $end
$var wire 32 X pc [31:0] $end
$upscope $end
$scope module programme_counter $end
$var wire 1 ! clk $end
$var wire 32 Y pc_next [31:0] $end
$var wire 1 $ reset $end
$var reg 32 Z pc [31:0] $end
$upscope $end
$scope module register_file $end
$var wire 1 ! clk $end
$var wire 5 [ rd [4:0] $end
$var wire 1 + reg_write $end
$var wire 5 \ rs1 [4:0] $end
$var wire 5 ] rs2 [4:0] $end
$var wire 32 ^ write_data [31:0] $end
$var reg 32 _ read_data1 [31:0] $end
$var reg 32 ` read_data2 [31:0] $end
$var integer 32 a i [31:0] $end
$upscope $end
$upscope $end
$upscope $end
$enddefinitions $end
$comment Show the parameter values. $end
$dumpall
b100011 U
b11 T
b1101111 S
b1100011 R
b10011 Q
$end
#0
$dumpvars
b100000 a
bx `
bx _
bx ^
bx ]
bx \
bx [
bx Z
bx Y
bx X
bx W
bx V
bx P
bx O
b100000000 N
b0 M
bx L
bx K
bx J
bx I
bx H
bx G
bx F
bx E
bx D
bx C
bx B
xA
bx @
x?
bx >
x=
bx <
bx ;
bx :
bx 9
x8
x7
x6
x5
bx 4
x3
bx 2
bx 1
bx 0
bx /
b0 .
bx -
bx ,
x+
bx *
bx )
bx (
bx '
bx &
x%
1$
x#
bx "
0!
$end
#5000
b101 &
b101 ^
b100 0
b100 Y
05
0%
b101 *
b101 E
b101 K
b101 F
03
0=
0#
b101 @
b101 B
b101 >
b101 "
b101 :
b101 V
b0 ,
b0 L
b0 `
b0 -
b0 D
b0 _
b0 '
b0 C
b0 J
08
1+
06
07
0?
1A
b10011 O
b1 /
b1 [
b101 (
b101 ]
b0 )
b0 \
b0 <
b0 G
b0 ;
b0 H
b10011 4
b10011 I
b10100000000000010010011 9
b10100000000000010010011 P
b10100000000000010010011 W
b100 1
b0 2
b0 X
b0 Z
1!
#10000
0!
#15000
0$
1!
#20000
0!
#25000
b1010 &
b1010 ^
b1010 *
b1010 E
b1010 K
b1010 F
b1010 @
b1010 B
b10 /
b10 [
b1010 (
b1010 ]
b1010 "
b1010 :
b1010 V
b101000000000000100010011 9
b101000000000000100010011 P
b101000000000000100010011 W
b1000 0
b1000 Y
b1110 >
b1000 1
b100 2
b100 X
b100 Z
1!
#30000
0!
#35000
b111 &
b111 ^
b111 *
b111 E
b111 K
b111 F
b111 @
b111 B
b11 /
b11 [
b111 (
b111 ]
b111 "
b111 :
b111 V
b11100000000000110010011 9
b11100000000000110010011 P
b11100000000000110010011 W
b1100 0
b1100 Y
b1111 >
b1100 1
b1000 2
b1000 X
b1000 Z
1!
#40000
0!
#45000
b1111 &
b1111 ^
b1111 *
b1111 E
b1111 K
b1111 F
b1010 ,
b1010 L
b1010 `
b101 -
b101 D
b101 _
1+
0A
b1010 @
b1010 B
b110011 O
b100 /
b100 [
b10 (
b10 ]
b1 )
b1 \
b110011 4
b110011 I
b10 "
b10 :
b10 V
b1000001000001000110011 9
b1000001000001000110011 P
b1000001000001000110011 W
b10000 0
b10000 Y
b1110 >
b10000 1
b1100 2
b1100 X
b1100 Z
1!
#50000
0!
#55000
b101 &
b101 ^
b101 @
b101 B
0%
b101 *
b101 E
b101 K
b101 F
b101 ,
b101 L
b101 `
b1010 -
b1010 D
b1010 _
b1 '
b1 C
b1 J
1+
b101 /
b101 [
b1 (
b1 ]
b10 )
b10 \
b100000 ;
b100000 H
b1000000000100010000001010110011 9
b1000000000100010000001010110011 P
b1000000000100010000001010110011 W
b10100 0
b10100 Y
b10010 >
b10100 1
b10000 2
b10000 X
b10000 Z
1!
#60000
0!
#65000
b111 @
b111 B
b111 ,
b111 L
b111 `
b101 -
b101 D
b101 _
b10 '
b10 C
b10 J
1+
b110 /
b110 [
b11 (
b11 ]
b1 )
b1 \
b111 <
b111 G
b0 ;
b0 H
b1100001111001100110011 9
b1100001111001100110011 P
b1100001111001100110011 W
b11000 0
b11000 Y
b10110 >
b11000 1
b10100 2
b10100 X
b10100 Z
1!
#70000
0!
#75000
b111 &
b111 ^
b111 *
b111 E
b111 K
b11 '
b11 C
b11 J
1+
b111 /
b111 [
b110 <
b110 G
b1100001110001110110011 9
b1100001110001110110011 P
b1100001110001110110011 W
b11100 0
b11100 Y
b11010 >
b11100 1
b11000 2
b11000 X
b11000 Z
1!
#80000
0!
#85000
b10 &
b10 ^
b10 *
b10 E
b10 K
b100 '
b100 C
b100 J
1+
b1000 /
b1000 [
b100 <
b100 G
b1100001100010000110011 9
b1100001100010000110011 P
b1100001100010000110011 W
b100000 0
b100000 Y
b11110 >
b100000 1
b11100 2
b11100 X
b11100 Z
1!
#90000
0!
#95000
b1 &
b1 ^
b1010 @
b1010 B
b1 *
b1 E
b1 K
b1010 ,
b1010 L
b1010 `
b110 '
b110 C
b110 J
1+
b1001 /
b1001 [
b10 (
b10 ]
b10 <
b10 G
b1000001010010010110011 9
b1000001010010010110011 P
b1000001010010010110011 W
b100100 0
b100100 Y
b100010 >
b100100 1
b100000 2
b100000 X
b100000 Z
1!
#100000
0!
#105000
b0 &
b0 ^
1%
b0 @
b0 B
b0 *
b0 E
b0 K
b0 F
b0 "
b0 :
b0 V
b1111 ,
b1111 L
b1111 `
b0 -
b0 D
b0 _
16
1A
b0 '
b0 C
b0 J
0+
b100011 O
b0 /
b0 [
b100 (
b100 ]
b0 )
b0 \
b100011 4
b100011 I
b10000000010000000100011 9
b10000000010000000100011 P
b10000000010000000100011 W
b101000 0
b101000 Y
b100100 >
b101000 1
b100100 2
b100100 X
b100100 Z
1!
#110000
0!
#115000
b100 &
b100 ^
0%
b100 *
b100 E
b100 K
b100 F
b101 ,
b101 L
b101 `
b100 @
b100 B
b100 /
b100 [
b101 (
b101 ]
b100 "
b100 :
b100 V
b10100000010001000100011 9
b10100000010001000100011 P
b10100000010001000100011 W
b101100 0
b101100 Y
b101100 >
b101100 1
b101000 2
b101000 X
b101000 Z
1!
#120000
0!
#125000
b1000 &
b1000 ^
b1000 *
b1000 E
b1000 K
b1000 F
b1000 @
b1000 B
b1000 /
b1000 [
b110 (
b110 ]
b1000 "
b1000 :
b1000 V
b11000000010010000100011 9
b11000000010010000100011 P
b11000000010010000100011 W
b110000 0
b110000 Y
b110100 >
b110000 1
b101100 2
b101100 X
b101100 Z
1!
#130000
0!
#135000
b1100 &
b1100 ^
b1100 *
b1100 E
b1100 K
b1100 F
b111 ,
b111 L
b111 `
b1100 @
b1100 B
b1100 /
b1100 [
b111 (
b111 ]
b1100 "
b1100 :
b1100 V
b11100000010011000100011 9
b11100000010011000100011 P
b11100000010011000100011 W
b110100 0
b110100 Y
b111100 >
b110100 1
b110000 2
b110000 X
b110000 Z
1!
#140000
0!
#145000
b10000 &
b10000 ^
b10000 *
b10000 E
b10000 K
b10000 F
b10 ,
b10 L
b10 `
b10000 @
b10000 B
b10000 /
b10000 [
b1000 (
b1000 ]
b10000 "
b10000 :
b10000 V
b100000000010100000100011 9
b100000000010100000100011 P
b100000000010100000100011 W
b111000 0
b111000 Y
b1000100 >
b111000 1
b110100 2
b110100 X
b110100 Z
1!
#150000
0!
#155000
b10100 &
b10100 ^
b10100 *
b10100 E
b10100 K
b10100 F
b1 ,
b1 L
b1 `
b10100 @
b10100 B
b10100 /
b10100 [
b1001 (
b1001 ]
b10100 "
b10100 :
b10100 V
b100100000010101000100011 9
b100100000010101000100011 P
b100100000010101000100011 W
b111100 0
b111100 Y
b1001100 >
b111100 1
b111000 2
b111000 X
b111000 Z
1!
#160000
0!
#165000
b10100 &
b10100 ^
b10100 *
b10100 E
b10100 K
b10100 F
b0 ,
b0 L
b0 `
1+
06
1A
b10100 @
b10100 B
b10011 O
b1010 /
b1010 [
b10100 (
b10100 ]
b0 <
b0 G
b10011 4
b10011 I
b10100 "
b10100 :
b10100 V
b1010000000000010100010011 9
b1010000000000010100010011 P
b1010000000000010100010011 W
b1000000 0
b1000000 Y
b1010000 >
b1000000 1
b111100 2
b111100 X
b111100 Z
1!
#170000
0!
#175000
b11 &
b11 ^
b11 *
b11 E
b11 K
b11 F
b111 ,
b111 L
b111 `
b11 @
b11 B
b1011 /
b1011 [
b11 (
b11 ]
b11 "
b11 :
b11 V
b1100000000010110010011 9
b1100000000010110010011 P
b1100000000010110010011 W
b1000100 0
b1000100 Y
b1000011 >
b1000100 1
b1000000 2
b1000000 X
b1000000 Z
1!
#180000
0!
#185000
b10111 &
b10111 ^
b10111 *
b10111 E
b10111 K
b10111 F
b11 ,
b11 L
b11 `
b10100 -
b10100 D
b10100 _
1+
0A
b11 @
b11 B
b110011 O
b1100 /
b1100 [
b1011 (
b1011 ]
b1010 )
b1010 \
b110011 4
b110011 I
b1011 "
b1011 :
b1011 V
b101101010000011000110011 9
b101101010000011000110011 P
b101101010000011000110011 W
b1001000 0
b1001000 Y
b1001111 >
b1001000 1
b1000100 2
b1000100 X
b1000100 Z
1!
#190000
0!
#195000
b10001 &
b10001 ^
b10001 *
b10001 E
b10001 K
b10001 F
b1 '
b1 C
b1 J
1+
b1101 /
b1101 [
b100000 ;
b100000 H
b1000000101101010000011010110011 9
b1000000101101010000011010110011 P
b1000000101101010000011010110011 W
b1001100 0
b1001100 Y
b1010011 >
b1001100 1
b1001000 2
b1001000 X
b1001000 Z
1!
#200000
0!
#205000
b0 &
b0 ^
1%
b0 *
b0 E
b0 K
b10 '
b10 C
b10 J
1+
b1110 /
b1110 [
b111 <
b111 G
b0 ;
b0 H
b101101010111011100110011 9
b101101010111011100110011 P
b101101010111011100110011 W
b1010000 0
b1010000 Y
b1010111 >
b1010000 1
b1001100 2
b1001100 X
b1001100 Z
1!
#210000
0!
#215000
b10111 &
b10111 ^
0%
b10111 *
b10111 E
b10111 K
b11 '
b11 C
b11 J
1+
b1111 /
b1111 [
b110 <
b110 G
b101101010110011110110011 9
b101101010110011110110011 P
b101101010110011110110011 W
b1010100 0
b1010100 Y
b1011011 >
b1010100 1
b1010000 2
b1010000 X
b1010000 Z
1!
#220000
0!
#225000
b100 '
b100 C
b100 J
1+
b10000 /
b10000 [
b100 <
b100 G
b101101010100100000110011 9
b101101010100100000110011 P
b101101010100100000110011 W
b1011000 0
b1011000 Y
b1011111 >
b1011000 1
b1010100 2
b1010100 X
b1010100 Z
1!
#230000
0!
#235000
b1 &
b1 ^
b10100 @
b10100 B
0%
b1 *
b1 E
b1 K
b10100 ,
b10100 L
b10100 `
b11 -
b11 D
b11 _
b110 '
b110 C
b110 J
1+
b10001 /
b10001 [
b1010 (
b1010 ]
b1011 )
b1011 \
b10 <
b10 G
b101001011010100010110011 9
b101001011010100010110011 P
b101001011010100010110011 W
b1011100 0
b1011100 Y
b1100011 >
b1011100 1
b1011000 2
b1011000 X
b1011000 Z
1!
#240000
0!
#245000
b11000 &
b11000 ^
b11000 @
b11000 B
b11000 *
b11000 E
b11000 K
b11000 F
b11000 "
b11000 :
b11000 V
b10111 ,
b10111 L
b10111 `
b0 -
b0 D
b0 _
16
1A
b0 '
b0 C
b0 J
0+
b100011 O
b11000 /
b11000 [
b1100 (
b1100 ]
b0 )
b0 \
b100011 4
b100011 I
b110000000010110000100011 9
b110000000010110000100011 P
b110000000010110000100011 W
b1100000 0
b1100000 Y
b1110100 >
b1100000 1
b1011100 2
b1011100 X
b1011100 Z
1!
#250000
0!
#255000
b11100 &
b11100 ^
b11100 *
b11100 E
b11100 K
b11100 F
b10001 ,
b10001 L
b10001 `
b11100 @
b11100 B
b11100 /
b11100 [
b1101 (
b1101 ]
b11100 "
b11100 :
b11100 V
b110100000010111000100011 9
b110100000010111000100011 P
b110100000010111000100011 W
b1100100 0
b1100100 Y
b1111100 >
b1100100 1
b1100000 2
b1100000 X
b1100000 Z
1!
#260000
0!
#265000
b100000 &
b100000 ^
b100000 *
b100000 E
b100000 K
b100000 F
b0 ,
b0 L
b0 `
16
1A
b100000 @
b100000 B
b0 /
b0 [
b1110 (
b1110 ]
b1 ;
b1 H
b100000 "
b100000 :
b100000 V
b10111000000010000000100011 9
b10111000000010000000100011 P
b10111000000010000000100011 W
b1101000 0
b1101000 Y
b10000100 >
b1101000 1
b1100100 2
b1100100 X
b1100100 Z
1!
#270000
0!
#275000
b100100 &
b100100 ^
b100100 *
b100100 E
b100100 K
b100100 F
b10111 ,
b10111 L
b10111 `
b100100 @
b100100 B
b100 /
b100 [
b1111 (
b1111 ]
b100100 "
b100100 :
b100100 V
b10111100000010001000100011 9
b10111100000010001000100011 P
b10111100000010001000100011 W
b1101100 0
b1101100 Y
b10001100 >
b1101100 1
b1101000 2
b1101000 X
b1101000 Z
1!
#280000
0!
#285000
b101000 &
b101000 ^
b101000 *
b101000 E
b101000 K
b101000 F
b101000 @
b101000 B
b1000 /
b1000 [
b10000 (
b10000 ]
b101000 "
b101000 :
b101000 V
b11000000000010010000100011 9
b11000000000010010000100011 P
b11000000000010010000100011 W
b1110000 0
b1110000 Y
b10010100 >
b1110000 1
b1101100 2
b1101100 X
b1101100 Z
1!
#290000
0!
#295000
b101100 &
b101100 ^
b101100 *
b101100 E
b101100 K
b101100 F
b1 ,
b1 L
b1 `
b101100 @
b101100 B
b1100 /
b1100 [
b10001 (
b10001 ]
b101100 "
b101100 :
b101100 V
b11000100000010011000100011 9
b11000100000010011000100011 P
b11000100000010011000100011 W
b1110100 0
b1110100 Y
b10011100 >
b1110100 1
b1110000 2
b1110000 X
b1110000 Z
1!
#300000
0!
#305000
b1111 &
b1111 ^
1%
b1111 .
b1111 M
b0 *
b0 E
b0 K
b0 F
b0 ,
b0 L
b0 `
17
1+
06
1A
b0 @
b0 B
b11 O
b10010 /
b10010 [
b0 (
b0 ]
b0 ;
b0 H
b11 4
b11 I
b0 "
b0 :
b0 V
b10100100000011 9
b10100100000011 P
b10100100000011 W
b1111000 0
b1111000 Y
b1110100 >
b1111000 1
b1110100 2
b1110100 X
b1110100 Z
1!
#310000
0!
#315000
b101 &
b101 ^
b0 .
b0 M
0%
b101 *
b101 E
b101 K
b101 F
b101 ,
b101 L
b101 `
1+
07
1A
b101 @
b101 B
b10011 O
b10011 /
b10011 [
b101 (
b101 ]
b0 <
b0 G
b10011 4
b10011 I
b101 "
b101 :
b101 V
b10100000000100110010011 9
b10100000000100110010011 P
b10100000000100110010011 W
b1111100 0
b1111100 Y
b1111101 >
b1111100 1
b1111000 2
b1111000 X
b1111000 Z
1!
#320000
0!
#325000
b10100 /
b10100 [
b10100000000101000010011 9
b10100000000101000010011 P
b10100000000101000010011 W
b10000000 0
b10000000 Y
b10000001 >
b10000000 1
b1111100 2
b1111100 X
b1111100 Z
1!
#330000
0!
#335000
1#
b0 &
b0 ^
1%
05
0=
b0 *
b0 E
b0 K
b0 F
b101 -
b101 D
b101 _
1?
b1 '
b1 C
b1 J
0+
0A
b101 @
b101 B
b1100011 O
b1000 /
b1000 [
b10100 (
b10100 ]
b10011 )
b10011 \
b1100011 4
b1100011 I
b1000 "
b1000 :
b1000 V
b1010010011000010001100011 9
b1010010011000010001100011 P
b1010010011000010001100011 W
b10001000 0
b10001000 Y
b10001000 >
b10000100 1
b10000000 2
b10000000 X
b10000000 Z
1!
#340000
0!
#345000
b1 &
b1 ^
b1 @
b1 B
0%
b1 *
b1 E
b1 K
b1 F
0#
b0 -
b0 D
b0 _
1A
1+
b0 '
b0 C
b0 J
0?
b10011 O
b10110 /
b10110 [
b1 (
b1 ]
b0 )
b0 \
b10011 4
b10011 I
b1 "
b1 :
b1 V
b100000000101100010011 9
b100000000101100010011 P
b100000000101100010011 W
b10001100 0
b10001100 Y
b10001001 >
b10001100 1
b10001000 2
b10001000 X
b10001000 Z
1!
#350000
0!
#355000
b1 &
b1 ^
b1 *
b1 E
b1 K
b1 F
b1 ,
b1 L
b1 `
1+
0A
b1 @
b1 B
b110011 O
b10111 /
b10111 [
b10110 (
b10110 ]
b10101 )
b10101 \
b110011 4
b110011 I
b10110 "
b10110 :
b10110 V
b1011010101000101110110011 9
b1011010101000101110110011 P
b1011010101000101110110011 W
b10010000 0
b10010000 Y
b10100010 >
b10010000 1
b10001100 2
b10001100 X
b10001100 Z
1!
#360000
0!
#365000
b101 &
b101 ^
b101 *
b101 E
b101 K
b101 F
b101 @
b101 B
b101 "
b101 :
b101 V
b101 ,
b101 L
b101 `
1A
1+
b10011 O
b11000 /
b11000 [
b101 (
b101 ]
b0 )
b0 \
b10011 4
b10011 I
b10100000000110000010011 9
b10100000000110000010011 P
b10100000000110000010011 W
b10010100 0
b10010100 Y
b10010101 >
b10010100 1
b10010000 2
b10010000 X
b10010000 Z
1!
#370000
0!
#375000
b1010 &
b1010 ^
b1010 *
b1010 E
b1010 K
b1010 F
b10100 ,
b10100 L
b10100 `
b1010 @
b1010 B
b11001 /
b11001 [
b1010 (
b1010 ]
b1010 "
b1010 :
b1010 V
b101000000000110010010011 9
b101000000000110010010011 P
b101000000000110010010011 W
b10011000 0
b10011000 Y
b10011110 >
b10011000 1
b10010100 2
b10010100 X
b10010100 Z
1!
#380000
0!
#385000
b11111111111111111111111111111011 &
b11111111111111111111111111111011 ^
15
1=
b11111111111111111111111111111011 *
b11111111111111111111111111111011 E
b11111111111111111111111111111011 K
b111111111111111111111111111111011 F
b1010 ,
b1010 L
b1010 `
b101 -
b101 D
b101 _
b1 '
b1 C
b1 J
1+
0A
b1010 @
b1010 B
b110011 O
b11010 /
b11010 [
b11001 (
b11001 ]
b11000 )
b11000 \
b100000 ;
b100000 H
b110011 4
b110011 I
b10000011001 "
b10000011001 :
b10000011001 V
b1000001100111000000110100110011 9
b1000001100111000000110100110011 P
b1000001100111000000110100110011 W
b10011100 0
b10011100 Y
b10010110001 >
b10011100 1
b10011000 2
b10011000 X
b10011000 Z
1!
#390000
0!
#395000
b1 &
b1 ^
b1 @
b1 B
05
b1 *
b1 E
b1 K
b1 F
0=
b1 "
b1 :
b1 V
b101 ,
b101 L
b101 `
b0 -
b0 D
b0 _
1A
b0 '
b0 C
b0 J
1+
b10011 O
b1100 /
b1100 [
b1 (
b1 ]
b0 )
b0 \
b0 ;
b0 H
b10011 4
b10011 I
b100000000011000010011 9
b100000000011000010011 P
b100000000011000010011 W
b10100000 0
b10100000 Y
b10011101 >
b10100000 1
b10011100 2
b10011100 X
b10011100 Z
1!
#400000
0!
#405000
b1101 /
b1101 [
b100000000011010010011 9
b100000000011010010011 P
b100000000011010010011 W
b10100100 0
b10100100 Y
b10100001 >
b10100100 1
b10100000 2
b10100000 X
b10100000 Z
1!
#410000
0!
#415000
1#
b0 &
b0 ^
1%
05
0=
b0 *
b0 E
b0 K
b0 F
b1 ,
b1 L
b1 `
b1 -
b1 D
b1 _
1?
b1 '
b1 C
b1 J
0+
0A
b1 @
b1 B
b1100011 O
b1000 /
b1000 [
b1101 (
b1101 ]
b1100 )
b1100 \
b1100011 4
b1100011 I
b1000 "
b1000 :
b1000 V
b110101100000010001100011 9
b110101100000010001100011 P
b110101100000010001100011 W
b10101100 0
b10101100 Y
b10101100 >
b10101000 1
b10100100 2
b10100100 X
b10100100 Z
1!
#420000
0!
#425000
b101010 &
b101010 ^
b101010 @
b101010 B
0%
b101010 *
b101010 E
b101010 K
b101010 F
0#
b10100 ,
b10100 L
b10100 `
b0 -
b0 D
b0 _
1A
1+
b0 '
b0 C
b0 J
0?
b10011 O
b1111 /
b1111 [
b1010 (
b1010 ]
b0 )
b0 \
b1 ;
b1 H
b10011 4
b10011 I
b101010 "
b101010 :
b101010 V
b10101000000000011110010011 9
b10101000000000011110010011 P
b10101000000000011110010011 W
b10110000 0
b10110000 Y
b11010110 >
b10110000 1
b10101100 2
b10101100 X
b10101100 Z
1!
#430000
0!
#435000
b10110100 &
b10110100 ^
b10 *
b10 E
b10 K
b10 F
b10 ,
b10 L
b10 `
18
1+
0A
b10 @
b10 B
b1101111 O
b0 /
b0 [
b1000 (
b1000 ]
b0 ;
b0 H
b1101111 4
b1101111 I
b1000 "
b1000 :
b1000 V
b100000000000000001101111 9
b100000000000000001101111 P
b100000000000000001101111 W
b10111000 0
b10111000 Y
b10111000 >
b10110100 1
b10110000 2
b10110000 X
b10110000 Z
1!
#440000
0!
#445000
b110111 *
b110111 E
b110111 K
b110111 F
b110111 @
b110111 B
b1 ,
b1 L
b1 `
1A
08
1+
b10011 O
b10001 /
b10001 [
b10111 (
b10111 ]
b1 ;
b1 H
b10011 4
b10011 I
b110111 "
b110111 :
b110111 V
b11011100000000100010010011 9
b11011100000000100010010011 P
b11011100000000100010010011 W
b10111100 0
b10111100 Y
b110111 &
b110111 ^
b11101111 >
b10111100 1
b10111000 2
b10111000 X
b10111000 Z
1!
#450000
0!
#455000
b11000000 &
b11000000 ^
1%
b0 *
b0 E
b0 K
b0 F
b0 ,
b0 L
b0 `
18
1+
0A
b0 @
b0 B
b1101111 O
b0 /
b0 [
b0 (
b0 ]
b0 ;
b0 H
b1101111 4
b1101111 I
b0 "
b0 :
b0 V
b1101111 9
b1101111 P
b1101111 W
b10111100 0
b10111100 Y
b10111100 >
b11000000 1
b10111100 2
b10111100 X
b10111100 Z
1!
